<svg xmlns="http://www.w3.org/2000/svg" width="24" height="24" viewBox="0 0 24 24">
    <g fill="none" fill-rule="evenodd">
        <path fill="#EEBDA4" d="M10.375 15.49a2.17 2.17 0 0 0 3.192 0l.342-.363-.47-.182a.298.298 0 0 1-.19-.278v-.945a2.187 2.187 0 0 1-1.245.388c-.484 0-.91-.133-1.257-.355v.902c0 .13-.08.246-.2.292l-.5.194.328.348z"/>
        <path fill="#E6B49E" d="M11.798 15.49a.322.322 0 0 1 .118-.52l.054-.02c.12-.047.2-.164.2-.293v-.553a2.308 2.308 0 0 1-1.423-.349v.902c0 .13-.08.246-.2.292l-.5.194.328.348a2.17 2.17 0 0 0 2.308.578 2.215 2.215 0 0 1-.885-.578z"/>
        <path fill="#35363D" d="M11.972 6.521a2.994 2.994 0 0 0-2.994 2.994v1.206c.2-.185.552-.286.83-.25v-.148c0-.119.1-.213.218-.204 1.158.083 2.269-.284 3.16-.866a.204.204 0 0 1 .26.032c.762.818.69.786.69.893v.293c.305-.046.642.049.83.223V9.515a2.994 2.994 0 0 0-2.994-2.994z"/>
        <path fill="#000" d="M10.427 9.515c0-1.403.966-2.581 2.27-2.905a2.994 2.994 0 0 0-3.718 2.905l-.001 1.206c.2-.185.552-.286.83-.249v-.15c0-.118.1-.212.218-.203.134.01.268.013.4.01v-.614z"/>
        <path fill="#EEBDA4" d="M14.17 10.37v1.64l-.002.054c.58.088 1.035-.332 1.035-.847 0-.516-.455-.933-1.033-.846zM9.774 12.01v-1.639c-.505-.067-1.034.32-1.034.846 0 .515.454.935 1.035.847l-.001-.053z"/>
        <path fill="#E6B49E" d="M14.966 10.627a.902.902 0 0 0-.796-.256v1.64l-.002.053a.9.9 0 0 0 .798-.257v-1.18zM9.774 11.807a.849.849 0 0 1-.237-.59c0-.22.093-.415.237-.563v-.283c-.505-.067-1.034.32-1.034.846 0 .515.454.935 1.035.847l-.001-.053v-.204z"/>
        <path fill="#F5C5A9" d="M13.446 9.184a.204.204 0 0 0-.26-.032c-.891.582-2.07.95-3.227.867a.204.204 0 0 0-.219.203v1.789c0 1.15.901 2.2 2.264 2.2 1.213 0 2.2-.987 2.2-2.2v-1.933c0-.107.004-.075-.758-.894z"/>
        <path fill="#EEBDA4" d="M11.19 12.01V9.947a4.879 4.879 0 0 1-1.23.073.204.204 0 0 0-.22.203v1.789c0 1.15.901 2.2 2.264 2.2.245 0 .48-.042.701-.116a2.185 2.185 0 0 1-1.516-2.084z"/>
        <path fill="#00C3FF" d="M13.872 15.113l-.346.368a2.114 2.114 0 0 1-3.109 0l-.332-.353-2.644 1.025s-.269.111-.554.372A6.749 6.749 0 0 0 12 18.86a6.749 6.749 0 0 0 5.113-2.336c-.285-.261-.554-.372-.554-.372l-2.687-1.04z"/>
        <path fill="#00AAF0" d="M8.28 16.545l.859-1.05-1.698.659s-.269.11-.554.37c.286.33.603.632.948.902.241-.615.446-.88.446-.88z"/>
        <path fill="#E4EAF8" fill-rule="nonzero" d="M23.237 9.527h-1.6a.367.367 0 0 1-.351-.264 9.62 9.62 0 0 0-.786-1.892.367.367 0 0 1 .062-.436l1.132-1.132a.763.763 0 0 0 0-1.08l-2.418-2.417a.763.763 0 0 0-1.08 0l-1.132 1.132a.367.367 0 0 1-.435.062 9.618 9.618 0 0 0-1.892-.786.367.367 0 0 1-.264-.352V.763A.763.763 0 0 0 13.71 0h-3.42a.763.763 0 0 0-.763.763v1.6a.367.367 0 0 1-.264.351 9.616 9.616 0 0 0-1.892.786.367.367 0 0 1-.436-.062L5.803 2.306a.763.763 0 0 0-1.08 0L2.307 4.724a.763.763 0 0 0 0 1.08l1.132 1.132c.115.115.14.292.062.435a9.613 9.613 0 0 0-.786 1.892.367.367 0 0 1-.352.264H.763A.763.763 0 0 0 0 10.29v3.42c0 .422.342.763.763.763h1.6c.162 0 .305.108.351.264.196.663.46 1.296.786 1.892a.367.367 0 0 1-.062.435l-1.132 1.133a.763.763 0 0 0 0 1.08l2.418 2.417a.763.763 0 0 0 1.08 0l1.131-1.132a.367.367 0 0 1 .436-.062c.596.325 1.229.59 1.892.786a.367.367 0 0 1 .264.352v1.599c0 .421.341.763.763.763h3.42a.763.763 0 0 0 .763-.763v-1.6c0-.162.108-.305.264-.351a9.618 9.618 0 0 0 1.892-.786.367.367 0 0 1 .435.062l1.133 1.132a.763.763 0 0 0 1.08 0l2.417-2.418a.763.763 0 0 0 0-1.08l-1.132-1.131a.367.367 0 0 1-.062-.436 9.63 9.63 0 0 0 .786-1.892.367.367 0 0 1 .352-.264h1.599A.763.763 0 0 0 24 13.71v-3.42a.763.763 0 0 0-.763-.763zM12 18.764a6.764 6.764 0 1 1 0-13.528 6.764 6.764 0 0 1 0 13.528z"/>
        <g fill="#D8DCE5">
            <path d="M3.438 6.936c.115.115.14.292.062.435a9.613 9.613 0 0 0-.786 1.892.367.367 0 0 1-.352.264h1.45a.367.367 0 0 0 .35-.264c.196-.663.461-1.296.787-1.892a.367.367 0 0 0-.062-.435L3.754 5.803a.763.763 0 0 1 0-1.08L5.988 2.49l-.185-.184a.763.763 0 0 0-1.08 0L2.307 4.724a.763.763 0 0 0 0 1.08l1.132 1.132zM1.449 13.71v-3.42c0-.422.342-.763.763-.763H.763A.763.763 0 0 0 0 10.29v3.42c0 .422.342.763.763.763h1.45a.763.763 0 0 1-.764-.763zM3.754 19.276a.763.763 0 0 1 0-1.08l1.133-1.132a.367.367 0 0 0 .062-.435 9.613 9.613 0 0 1-.786-1.892.367.367 0 0 0-.352-.264H2.362c.163 0 .306.108.352.264.196.663.46 1.296.786 1.892a.367.367 0 0 1-.062.435l-1.132 1.133a.763.763 0 0 0 0 1.08l2.418 2.417a.763.763 0 0 0 1.08 0l.184-.184-2.234-2.234zM10.29 0a.763.763 0 0 0-.763.763v1.6c0 .14-.08.266-.203.327a5.185 5.185 0 0 1 1.352-.315c.17-.014.3-.157.3-.327V.763c0-.421.341-.763.763-.763H10.29zM10.976 23.237v-1.172a.447.447 0 0 0-.405-.446 4.265 4.265 0 0 1-1.227-.297c.111.065.183.183.183.316v1.599c0 .421.341.763.763.763h1.449a.763.763 0 0 1-.763-.763z"/>
        </g>
    </g>
</svg>
